Redes relacionales con R
…
download.file(
  url = "https://raw.githubusercontent.com/jboscomendoza/rpubs/master/pokemon_red/pokemon.csv", 
  destfile = "pokemon.csv")

Lectura de datos

Como tenemos un archivo con extensin .csv, usamos la funcin read_csv.

pokemon <- read_csv("pokemon.csv")

Veamos nuestro resultado.

pokemon

## # A tibble: 801 x 41
##    abilities against_bug against_dark against_dragon against_electric
##    <chr>           <dbl>        <dbl>          <dbl>            <dbl>
##  1 ['Overgr~        1               1              1              0.5
##  2 ['Overgr~        1               1              1              0.5
##  3 ['Overgr~        1               1              1              0.5
##  4 ['Blaze'~        0.5             1              1              1  
##  5 ['Blaze'~        0.5             1              1              1  
##  6 ['Blaze'~        0.25            1              1              2  
##  7 ['Torren~        1               1              1              2  
##  8 ['Torren~        1               1              1              2  
##  9 ['Torren~        1               1              1              2  
## 10 ['Shield~        1               1              1              1  
## # ... with 791 more rows, and 36 more variables: against_fairy <dbl>,
## #   against_fight <dbl>, against_fire <dbl>, against_flying <dbl>,
## #   against_ghost <dbl>, against_grass <dbl>, against_ground <dbl>,
## #   against_ice <dbl>, against_normal <dbl>, against_poison <dbl>,
## #   against_psychic <dbl>, against_rock <dbl>, against_steel <dbl>,
## #   against_water <dbl>, attack <int>, base_egg_steps <int>,
## #   base_happiness <int>, base_total <int>, capture_rate <chr>,
## #   classfication <chr>, defense <int>, experience_growth <int>,
## #   height_m <dbl>, hp <int>, japanese_name <chr>, name <chr>,
…
